…
### Difference between tibble and data.frame

- There are three key differences between tibbles and data frames: printing, subsetting, and recycling rules.



```r
library(tibble)
(gpanel1 <- as_tibble(dat))
```

```
## # A tibble: 1,222 x 1,192
##    z000001z z000002z z000003z z000005z a11c019a a11c020a a11c021a a11c022a
##  * <chr>    <chr>    <chr>    <chr>    <fct>    <fct>    <fct>    <fct>   
##  1 1984318~ ZA5666   1-0-0 2~ 10.4232~ Sehr zu~ Sehr zu~ Sehr zu~ Stimme ~
##  2 4361223~ ZA5666   1-0-0 2~ 10.4232~ Sehr zu~ Sehr zu~ Sehr zu~ Stimme ~
##  3 8568442~ ZA5666   1-0-0 2~ 10.4232~ Eher zu~ Eher zu~ Eher zu~ Stimme ~
##  4 1173466~ ZA5666   1-0-0 2~ 10.4232~ Sehr zu~ Sehr zu~ Sehr zu~ Stimme ~
##  5 9434333~ ZA5666   1-0-0 2~ 10.4232~ Sehr zu~ Sehr zu~ Eher un~ Stimme ~
##  6 2655825~ ZA5666   1-0-0 2~ 10.4232~ Sehr zu~ Sehr zu~ Sehr zu~ Stimme ~
##  7 2755871~ ZA5666   1-0-0 2~ 10.4232~ Sehr zu~ Sehr zu~ Weder z~ Stimme ~
##  8 6777718~ ZA5666   1-0-0 2~ 10.4232~ Sehr zu~ Eher zu~ Sehr zu~ Stimme ~
##  9 4636712~ ZA5666   1-0-0 2~ 10.4232~ Eher zu~ Eher zu~ Sehr zu~ Stimme ~
## 10 4788393~ ZA5666   1-0-0 2~ 10.4232~ Sehr zu~ Sehr zu~ Eher zu~ Stimme ~
## # ... with 1,212 more rows, and 1,184 more variables: a11c023a <fct>,
## #   a11c024a <fct>, a11c025a <fct>, a11c026a <fct>, a11c027a <fct>,
## #   a11c028a <fct>, a11c029a <fct>, a11c030a <fct>, a11c031a <fct>,
## #   a11c032a <fct>, a11c033a <fct>, a11c034a <fct>, a11c035a <fct>,
## #   a11c036a <fct>, a11c037a <fct>, a11c038a <fct>, a11c039a <fct>,
## #   a11c040a <fct>, a11c041a <fct>, a11c042a <fct>, a11c043a <fct>,
## #   a11c044a <fct>, a11c045a <fct>, a11c046a <fct>, a11c047a <fct>,
## #   a11c048a <fct>, a11c049a <fct>, a11c050a <fct>, a11c051a <fct>,
## #   a11c052a <fct>, a11c053a <fct>, a11d054a <fct>, a11d056z <fct>,
…
